[
    {
        "name": "Alte Weltordnung",
        "era-short": "alte-weltordnung",
        "start": "1977-12-31",
        "date": "1977-12-31",
        "end": "1989-11-08",
        "description": "Die Epoche des \"Kalten Krieges\" ist die \"Alte Weltordnung\" und die Zeit nach dem Zweiten Weltkrieg, in der sich zwei Hegemonialmächte, die Vereinigten Staaten von Amerika und die Sovietunion, die Welt aufteilten. Die Epoche endete mit dem Zerfall des \"Ostblocks\", worauf sich die \"Wendezeit\" anschließ. Heute wird allgemein der 25.12.1991 mit der Auflösung der Sovietunion als Ende des Kalten Krieges bezeichnet. Im Leben des V.i.S.d.W. endete der Kalte Krieg bereits mit dem Berliner Mauerfall 1989. Aus Sicht des V.i.S.d.W. ist der Begriff \"Kalter Krieg\" ein Euphemismus, da zwar kein direkter Krieg zwischen den Hegemonialmächten, jedoch zahlreiche Stellvertreterkriege zwischen diesen und ehemaliger Kolonialmächte wie dem Vereinigten Königreich und Frankreich stattfanden.",
        "media": {
            "title": "Boney M. - Sunny (ZDF Silvester-Tanzparty performance - 31.12.1977)",
            "date": "1977-12-31",
            "type": "yt",
            "source": "GAjvTs4vUVM",
            "iframe": true
        }
    },
    {
        "name": "Wendezeit",
        "era-short": "wendezeit",
        "start": "1989-11-09",
        "date": "1989-11-09",
        "end": "2001-09-10",
        "description": "Die Wendezeit ist die Epoche die sich der Epoche des \"Kalten Krieges\" anschließt. Sie begann, als sich die kommunistischen und sozialistischen Staaten unter der Hegemonie der Sovietunion in Auflösung befanden.  Die frühesten Ereignisse dieser Epoche sind der Tod Titos (Jugoslawien) und die Solidarnosc-Bewegung in Polen (beide ab 1980), später mit Glasnost und Perestroyka durch Gorbatschow. Das prägende Ereignis der Epoche war der Berliner Mauerfall am 9. November 1989. In den Wendejahren kam es in vielen Ex-Ostblock-Staaten zu Abspaltungen von der Sovietunion, zu Revolutionen, Unabhängigkeits- und Bürgerkriegen und zu Unruhen. So auch in Deutschland.",
        "media": {
            "title": "Mauerfall Berlin - Die Frau am Brandenburger Tor",
            "date": "1989-09-11",
            "type": "yt",
            "source": "kTt4678cmTk",
            "alt": "?start=97",
            "iframe": true
        }
    },
    {
        "name": "Die unipolare Weltordnung",
        "era-short": "unipolar",
        "start": "2001-09-11",
        "date": "2001-09-11",
        "end": "2007-08-07",
        "description": "Nachdem der Kommunismus gescheitert, die Sovietunion aufgelöst und viele Staaten sich demokratisiert haben, erhoben die Vereinigten Staaten von Amerika den Anspruch auf die alleinige Führungsrolle der Welt. Als neuer Feind wurde der Islamistische Terrorismus ausgemacht. Die Epoche beginnt am 11. September 2001 und hat kein scharfes Ende. Im Leben des V.i.S.d.W. wird aber der Beginn der Weltwirtschaftskrisen ab 2007. Seitdem beanspruchen immer mehr Staaten und Staatenbünde einen (regionalen) Führungsanspruch, wie z. B. die Europäische Union und die ogenannten BRICS Staaten: Brasilien, Russland, Indien, China und Südafrika, während sich die Vereinigten Staaten vermehrt aus ihren Kriegen, welche die Epoche geprägt haben zurückziehen. Die Ereignisse am 11. September 2001 verfolgte der V.i.S.d.W. live am Fernseher auf der NATO-Airbase in Geilenkirchen (NAEWCF).",
        "media": {
            "title": "9/11: Second plane hits South Tower",
            "date": "2001-09-11",
            "type": "yt",
            "source": "sBciZFE8lAw",
            "iframe": true
        }
    },
    {
        "name": "Übergangsweltordnung I",
        "era-short": "uebergangsweltordnung-1",
        "start": "2007-08-08",
        "date": "2007-08-08",
        "end": "2019-11-16",
        "description": "Die Vormachtstellung der Vereinigten Staaten von Amerika gerät ins Stocken. Wie alle durch extern herbeigeführten <a href=\"https://en.wikipedia.org/wiki/Regime_change\">regime-change</a> demokratisierten Länder sieht sich nun auch die libyische Bevölkerung in einem Bürgerkrieg. Während des Arabischen Frühlings 2009-2010 \"demokratisiert\" bombardiert die NATO mit Frankreich und den Vereinigten Staaten von Amerika das Land, in dem sich nun rivalisierende Gruppen bekämpfen. Die Kriege in Afghanistan und Irak fordern hohe Verluste und werden in der gesamten westlichen Welt immer unbeliebter. Der 1999 gegründete Islamische Staat kann sich dank des durch \"regime change\" entstandenen Machtvakuums in Syrien und im Irak ausbreiten. \"Salafisten\" bedrohen nun das Abendland. Eine hausgemachte und seit 2003 vorhersehbare Immobilienkrise (sub-prime) in den Vereinigten Staaten von Amerika führt zu einer globalen Kettenreaktion, die mehrere Banken in den Bankrott treiben wird und Staaten und die Europäische Union zu zerreißen droht. Die Sub-Prime-Krise 2007 markiert hier den Beginn in die Übergangsweltordnung I. Die Epoche ist geprägt von fast jährlich neu auftretenden (Wirtschafts)-Krisen. Es häufen sich Meldungen von gefährlichen Viren (Vogelgrippe H5N1, H5N3, Schweinegrippe H1N1 und weitere) in den Medien. Die Bevölkerung wird medial ständig in Alarmbereitschaft gehalten. Der Begriff Neue Weltordnung wurde in dieser Zeit sehr häufig in den Medien und von Politikern genutzt. Um das Jahr 2008 wird Russland zum ersten Mal nach dem Ende des Kalten Krieges zum Feind erklärt. Mehrere osteuropäische Staaten, aber auch die wirtschaftlichen schwachen PIIGS-Staaten drohen sich von Europa abzuwenden. Das Vereinigte Königreich verlässt die EU. Mehrere Flüchtlingswellen strapazieren die Vereinigten Staaten von Amerika und die Europäische Union. Die öffentlichen Medien sehen sich erstmals dem Vorwurf ausgesetzt, einseitig zu berichten, sehen bei sich aber keine Defizite. Erhalten nun aber Beiträge auch von Bürgern, die keinen Fernseher oder Radio besitzen und das Programm nicht schauen. Der V.i.S.d.W. nennt diese Epoche auch die verrückte Epoche. Es scheint, als drehen langsam alle Menschen durch.",
        "media": {
            "title": "Lehman Bros meltdown shakes world's markets - 15 Sep 08",
            "date": "2007-08-08",
            "type": "yt",
            "source": "mDfnLlkKSJI",
            "iframe": true
        }
    },
    {
        "name": "Übergangsweltordnung II",
        "era-short": "uebergangsweltordnung-2",
        "start": "2019-11-17",
        "date": "2019-11-17",
        "end": "now",
        "description": "Im Dezember 2019 wird in der chinesischen Stadt ein \"neues\" Virus entdeckt das zu einer mysteriösen Lungenkrankheit führt. Viele Staaten der Welt setzen darauf hin restriktive Maßnahmen um. Westliche Staaten setzen ihre Grundrechte außer Kraft und das Reisen zwischen den Teilen der Erde, Länder, aber auch Regionen, Städten und selbst Stadtteilen wird teils unterbunden. Gleichzeitig werden missliebige ungeimpfte oder kritische Bürger in Deutschland aber auch anderswo durch eine breite Medienkampagne zu <a href=\"https://ich-habe-mitgemacht.de\">Staatsfeinden und Terroristen</a> erklärt. In Deutschland macht sich wie in den Vereinigten Staaten die sogenannte \"Cancel-Culture\" breit. Von staatlicher Seite wird versucht, die sog. \"gendergerechte\" Sprache aufzuzwingen.  Vergleiche mit faschistoiden oder autokratischen Staaten werden gesellschaftlich nicht akzeptiert. Der V.i.S.d.W. nennt diese gegenwertige Epoche auch total verrückte (peak crazy) Epoche. Wer jahrelang für Frieden und gegen Atomkraft demonstiert hat ist nun dafür. Allem voran die \"Grünen\" verfolgen die Neokonservative Reagan Doktrin \"Frieden durch Gewalt\". Menschen aus der Mitte der Gesellschaft sehen sich nun sowohl dem linksextremisitischen wie auch dem rechtsextremistischen Spektrum zugeordnet. Politiker ohne Ausbildung versuchen den seit mindestens zehn Jahre beklagten Fachkräftemangel, eine der schwersten Wirtschaftskrisen mit teils leeren Regalen und vermehrten Unternehmenspleiten, eine drohende Energieknappheit und eine global grassierende Inflation zu bekämpfen. Die amerikanischen Kriege der \"Unipolaren Weltordnung\" neigen sich dem Ende. Russland und China versuchen ihren Anspruch durchzusetzen. Der unfehlbare öffentliche Rundfunk in Deutschland wird von mehreren Skandalen heimgesucht. Jugendliche kleben sich auf Autobahnen und beschmieren alte Bilder und retten damit das Weltklima. Es scheint, als ob immer mehr Menschen einem psychotischen Massenwahn verfallen sind und man fühlt sich in den Film <a href=\"https://www.youtube.com/watch?v=KeLpCOHZiX4\">Idiocracy</a> versetzt (andere Vergleiche <hier> denken).",
        "media": {
            "title": "Lungenkrankheit in China: Neuartiges Corona-Virus entdeckt",
            "date": "2019-11-17",
            "type": "yt",
            "source": "hU7vVnxFoBk",
            "iframe": true
        }
    }
]
